microprocesser_files/custom_processor/simulation_files/output/alu_tb_output.txt
SrcA = 00000000000000000000000000000000, SrcB = 00000000000000000000000000000000, ALUControl = 000, zero = 1, ALUResult = 00000000000000000000000000000000
SrcA = 00000000000000000000000000000000, SrcB = 00000000000000000000000000000001, ALUControl = 000, zero = 1, ALUResult = 00000000000000000000000000000000
SrcA = 00000000000000000000000000000001, SrcB = 00000000000000000000000000000000, ALUControl = 000, zero = 1, ALUResult = 00000000000000000000000000000000
SrcA = 00000000000000000000000000000001, SrcB = 00000000000000000000000000000001, ALUControl = 000, zero = 0, ALUResult = 00000000000000000000000000000001
SrcA = 00000000000000000000000000000000, SrcB = 00000000000000000000000000000000, ALUControl = 001, zero = 1, ALUResult = 00000000000000000000000000000000
SrcA = 00000000000000000000000000000000, SrcB = 00000000000000000000000000000001, ALUControl = 001, zero = 0, ALUResult = 00000000000000000000000000000001
SrcA = 00000000000000000000000000000001, SrcB = 00000000000000000000000000000000, ALUControl = 001, zero = 0, ALUResult = 00000000000000000000000000000001
SrcA = 00000000000000000000000000000001, SrcB = 00000000000000000000000000000001, ALUControl = 001, zero = 0, ALUResult = 00000000000000000000000000000001
SrcA = 00000000000000000000000000000001, SrcB = 00000000000000000000000000000000, ALUControl = 010, zero = 0, ALUResult = 00000000000000000000000000000001
SrcA = 00000000000000000000000000000001, SrcB = 00000000000000000000000000000001, ALUControl = 010, zero = 0, ALUResult = 00000000000000000000000000000010
SrcA = 00000000000000000000000000000000, SrcB = 00000000000000000000000000000000, ALUControl = 100, zero = 1, ALUResult = 00000000000000000000000000000000
SrcA = 00000000000000000000000000000000, SrcB = 00000000000000000000000000000001, ALUControl = 100, zero = 1, ALUResult = 00000000000000000000000000000000
SrcA = 00000000000000000000000000000001, SrcB = 00000000000000000000000000000000, ALUControl = 100, zero = 0, ALUResult = 00000000000000000000000000000001
SrcA = 00000000000000000000000000000001, SrcB = 00000000000000000000000000000001, ALUControl = 100, zero = 1, ALUResult = 00000000000000000000000000000000
SrcA = 00000000000000000000000000000000, SrcB = 00000000000000000000000000000000, ALUControl = 101, zero = 0, ALUResult = 11111111111111111111111111111111
SrcA = 00000000000000000000000000000000, SrcB = 00000000000000000000000000000001, ALUControl = 101, zero = 0, ALUResult = 11111111111111111111111111111110
SrcA = 00000000000000000000000000000001, SrcB = 00000000000000000000000000000000, ALUControl = 101, zero = 0, ALUResult = 11111111111111111111111111111111
SrcA = 00000000000000000000000000000001, SrcB = 00000000000000000000000000000001, ALUControl = 101, zero = 0, ALUResult = 11111111111111111111111111111111
SrcA = 00000000000000000000000000000001, SrcB = 00000000000000000000000000000000, ALUControl = 110, zero = 0, ALUResult = 00000000000000000000000000000001
SrcA = 00000000000000000000000000000001, SrcB = 00000000000000000000000000000001, ALUControl = 110, zero = 1, ALUResult = 00000000000000000000000000000000
SrcA = 00000000000000000000000000000001, SrcB = 00000000000000000000000000000000, ALUControl = 111, zero = 1, ALUResult = 00000000000000000000000000000000
SrcA = 00000000000000000000000000000000, SrcB = 00000000000000000000000000000001, ALUControl = 111, zero = 0, ALUResult = 00000000000000000000000000000001
$finish called at time : 220 ns : File "C:/Users/kadhi/custom-Microprocessor/custom-Microprocessor.srcs/sim_1/new/alu_tb.v" Line 152
xsim: Time (s): cpu = 00:00:13 ; elapsed = 00:00:15 . Memory (MB): peak = 1935.762 ; gain = 30.746
INFO: [USF-XSim-96] XSim completed. Design snapshot 'alu_tb_behav' loaded.
INFO: [USF-XSim-97] XSim simulation ran for 1000ns
launch_simulation: Time (s): cpu = 00:00:20 ; elapsed = 00:00:35 . Memory (MB): peak = 1935.762 ; gain = 30.746
